[gd_scene load_steps=5 format=2]

[ext_resource path="res://objects/king_spawner/king_spawner.gd" type="Script" id=1]
[ext_resource path="res://objects/king/king.tscn" type="PackedScene" id=2]
[ext_resource path="res://objects/king/controls/keyboard/keyboard.tscn" type="PackedScene" id=3]
[ext_resource path="res://objects/king/controls/gamepad/gamepad.tscn" type="PackedScene" id=4]

[node name="king_spawner" type="Node2D"]

script = ExtResource( 1 )
king = ExtResource( 2 )
keyboard_controls = ExtResource( 3 )
gamepad_controls = ExtResource( 4 )
target = null
allow_join = false


